{
	"spawnObjects": [{
			"name": "Sphere",
			"position": {
				"x": -0.3836336135864258,
				"y": 1.7995541095733643,
				"z": 1.8161790370941163
			},
			"rotation": {
				"x": 0.0,
				"y": 0.0,
				"z": 0.0
			},
			"scale": {
				"x": 1.0,
				"y": 1.0,
				"z": 1.0
			},
			"primitive": "Sphere",
			"information": {
				"stringField": "This object is a : Sphere",
				"intField": 5,
				"floatField": 68.84,
				"boolField": true
			}
		},
		{
			"name": "Capsule",
			"position": {
				"x": -0.6036336421966553,
				"y": 1.6995540857315064,
				"z": 0.2151789665222168
			},
			"rotation": {
				"x": 0.0,
				"y": 0.0,
				"z": 292.4501953125
			},
			"scale": {
				"x": 1.0,
				"y": 1.0,
				"z": 0.4956499934196472
			},
			"primitive": "Capsule",
			"information": {
				"stringField": "This object is a : Capsule",
				"intField": 98,
				"floatField": 57.68,
				"boolField": false
			}
		},
		{
			"name": "Cylinder",
			"position": {
				"x": -0.3836336135864258,
				"y": 3.446554183959961,
				"z": 0.4591789245605469
			},
			"rotation": {
				"x": 33.07579803466797,
				"y": 0.0,
				"z": 0.0
			},
			"scale": {
				"x": 0.5354300141334534,
				"y": 0.5354300141334534,
				"z": 0.5354300141334534
			},
			"primitive": "Cylinder",
			"information": {
				"stringField": "This object is a : Cylinder",
				"intField": 44,
				"floatField": 26.51,
				"boolField": false
			}
		},
		{
			"name": "Cube",
			"position": {
				"x": -2.6036336421966554,
				"y": 1.7995541095733643,
				"z": 0.3061789870262146
			},
			"rotation": {
				"x": 351.5929260253906,
				"y": 335.35369873046877,
				"z": 342.32501220703127
			},
			"scale": {
				"x": 1.0,
				"y": 1.0,
				"z": 1.0
			},
			"primitive": "Cube",
			"information": {
				"stringField": "This object is a : Cube",
				"intField": 42,
				"floatField": 42.39,
				"boolField": true
			}
		}
	]
}